// Jest Snapshot v1, https://goo.gl/fbAQLP

exports[`renders correctly 1`] = `
<View
  style={
    Object {
      "alignItems": "center",
      "backgroundColor": "#403e43",
      "flex": 1,
    }
  }
>
  <View
    style={
      Object {
        "height": 50,
        "marginTop": 60,
        "paddingHorizontal": 10,
        "width": 750,
      }
    }
  >
    <View
      style={
        Object {
          "flexDirection": "row",
        }
      }
    >
      <View>
        <View
          accessibilityLabel="Restart"
          accessibilityRole="button"
          accessibilityState={Object {}}
          accessible={true}
          focusable={true}
          onClick={[Function]}
          onResponderGrant={[Function]}
          onResponderMove={[Function]}
          onResponderRelease={[Function]}
          onResponderTerminate={[Function]}
          onResponderTerminationRequest={[Function]}
          onStartShouldSetResponder={[Function]}
          style={
            Object {
              "opacity": 1,
            }
          }
          testID="App.Restart"
        >
          <View
            style={
              Array [
                Object {},
              ]
            }
          >
            <Text
              style={
                Array [
                  Object {
                    "color": "#007AFF",
                    "fontSize": 18,
                    "margin": 8,
                    "textAlign": "center",
                  },
                ]
              }
            >
              Restart
            </Text>
          </View>
        </View>
      </View>
      <View
        style={
          Object {
            "flexDirection": "row",
            "paddingTop": 10,
            "width": "80%",
          }
        }
      >
        <Text
          style={
            Object {
              "color": "#FFFFFF",
              "flex": 1,
              "fontSize": 18,
              "textAlign": "right",
            }
          }
          testID="App.Step"
        >
          STEP:
          <Text
            style={
              Object {
                "color": "#2da4ef",
                "fontSize": 20,
              }
            }
            testID="App.StepCount"
          >
             
            0
             
          </Text>
        </Text>
      </View>
    </View>
  </View>
  <RCTScrollView
    data={
      Array [
        Object {
          "id": 1,
          "value": 66,
        },
        Object {
          "id": 2,
          "value": 91,
        },
        Object {
          "id": 3,
          "value": 91,
        },
        Object {
          "id": 4,
          "value": 2,
        },
        Object {
          "id": 5,
          "value": 73,
        },
        Object {
          "id": 6,
          "value": 25,
        },
        Object {
          "id": 7,
          "value": 66,
        },
        Object {
          "id": 8,
          "value": 25,
        },
        Object {
          "id": 9,
          "value": 47,
        },
        Object {
          "id": 10,
          "value": 2,
        },
        Object {
          "id": 11,
          "value": 73,
        },
        Object {
          "id": 12,
          "value": 47,
        },
      ]
    }
    disableVirtualization={false}
    getItem={[Function]}
    getItemCount={[Function]}
    horizontal={false}
    initialNumToRender={10}
    keyExtractor={[Function]}
    maxToRenderPerBatch={10}
    onContentSizeChange={[Function]}
    onEndReachedThreshold={2}
    onLayout={[Function]}
    onMomentumScrollEnd={[Function]}
    onScroll={[Function]}
    onScrollBeginDrag={[Function]}
    onScrollEndDrag={[Function]}
    removeClippedSubviews={false}
    renderItem={[Function]}
    scrollEventThrottle={50}
    stickyHeaderIndices={Array []}
    style={
      Object {
        "width": 750,
      }
    }
    testID="App.CardList"
    updateCellsBatchingPeriod={50}
    viewabilityConfigCallbackPairs={Array []}
    windowSize={21}
  >
    <View>
      <View
        onLayout={[Function]}
        style={null}
      >
        <View
          style={
            Object {
              "flexDirection": "row",
            }
          }
        >
          <View
            accessible={true}
            focusable={true}
            onClick={[Function]}
            onResponderGrant={[Function]}
            onResponderMove={[Function]}
            onResponderRelease={[Function]}
            onResponderTerminate={[Function]}
            onResponderTerminationRequest={[Function]}
            onStartShouldSetResponder={[Function]}
          >
            <View
              style={
                Array [
                  Object {
                    "alignItems": "center",
                    "flex": 1,
                    "paddingHorizontal": 5,
                    "paddingVertical": 5,
                  },
                ]
              }
            >
              <View
                style={
                  Object {
                    "backfaceVisibility": "hidden",
                    "backgroundColor": "#2da4ef",
                    "borderColor": "#FFFFFF",
                    "borderRadius": 10,
                    "borderWidth": 4,
                    "elevation": 5,
                    "height": 290,
                    "shadowColor": undefined,
                    "shadowOffset": Object {
                      "height": 1,
                      "width": 0,
                    },
                    "shadowOpacity": 0.3,
                    "shadowRadius": 2,
                    "transform": Array [
                      Object {
                        "rotateY": "0deg",
                      },
                    ],
                    "width": 240,
                  }
                }
              >
                <View
                  style={
                    Object {
                      "alignItems": "center",
                      "flex": 1,
                      "justifyContent": "center",
                    }
                  }
                >
                  <Text
                    style={
                      Object {
                        "alignSelf": "center",
                        "color": "#FFFFFF",
                        "fontSize": 40,
                        "marginTop": 5,
                        "opacity": 0.8,
                      }
                    }
                  >
                    ?
                  </Text>
                </View>
              </View>
              <View
                style={
                  Object {
                    "backfaceVisibility": "hidden",
                    "borderColor": undefined,
                    "borderRadius": 10,
                    "borderWidth": 0.5,
                    "height": 290,
                    "position": "absolute",
                    "top": 0,
                    "transform": Array [
                      Object {
                        "rotateY": "180deg",
                      },
                    ],
                    "width": 240,
                  }
                }
              >
                <View
                  style={
                    Object {
                      "alignItems": "center",
                      "flex": 1,
                      "justifyContent": "center",
                    }
                  }
                >
                  <Text
                    style={
                      Object {
                        "alignSelf": "center",
                        "color": "#FFFFFF",
                        "fontSize": 40,
                        "marginTop": 5,
                        "opacity": 0.8,
                      }
                    }
                  >
                    66
                  </Text>
                </View>
              </View>
            </View>
          </View>
          <View
            accessible={true}
            focusable={true}
            onClick={[Function]}
            onResponderGrant={[Function]}
            onResponderMove={[Function]}
            onResponderRelease={[Function]}
            onResponderTerminate={[Function]}
            onResponderTerminationRequest={[Function]}
            onStartShouldSetResponder={[Function]}
          >
            <View
              style={
                Array [
                  Object {
                    "alignItems": "center",
                    "flex": 1,
                    "paddingHorizontal": 5,
                    "paddingVertical": 5,
                  },
                ]
              }
            >
              <View
                style={
                  Object {
                    "backfaceVisibility": "hidden",
                    "backgroundColor": "#2da4ef",
                    "borderColor": "#FFFFFF",
                    "borderRadius": 10,
                    "borderWidth": 4,
                    "elevation": 5,
                    "height": 290,
                    "shadowColor": undefined,
                    "shadowOffset": Object {
                      "height": 1,
                      "width": 0,
                    },
                    "shadowOpacity": 0.3,
                    "shadowRadius": 2,
                    "transform": Array [
                      Object {
                        "rotateY": "0deg",
                      },
                    ],
                    "width": 240,
                  }
                }
              >
                <View
                  style={
                    Object {
                      "alignItems": "center",
                      "flex": 1,
                      "justifyContent": "center",
                    }
                  }
                >
                  <Text
                    style={
                      Object {
                        "alignSelf": "center",
                        "color": "#FFFFFF",
                        "fontSize": 40,
                        "marginTop": 5,
                        "opacity": 0.8,
                      }
                    }
                  >
                    ?
                  </Text>
                </View>
              </View>
              <View
                style={
                  Object {
                    "backfaceVisibility": "hidden",
                    "borderColor": undefined,
                    "borderRadius": 10,
                    "borderWidth": 0.5,
                    "height": 290,
                    "position": "absolute",
                    "top": 0,
                    "transform": Array [
                      Object {
                        "rotateY": "180deg",
                      },
                    ],
                    "width": 240,
                  }
                }
              >
                <View
                  style={
                    Object {
                      "alignItems": "center",
                      "flex": 1,
                      "justifyContent": "center",
                    }
                  }
                >
                  <Text
                    style={
                      Object {
                        "alignSelf": "center",
                        "color": "#FFFFFF",
                        "fontSize": 40,
                        "marginTop": 5,
                        "opacity": 0.8,
                      }
                    }
                  >
                    91
                  </Text>
                </View>
              </View>
            </View>
          </View>
          <View
            accessible={true}
            focusable={true}
            onClick={[Function]}
            onResponderGrant={[Function]}
            onResponderMove={[Function]}
            onResponderRelease={[Function]}
            onResponderTerminate={[Function]}
            onResponderTerminationRequest={[Function]}
            onStartShouldSetResponder={[Function]}
          >
            <View
              style={
                Array [
                  Object {
                    "alignItems": "center",
                    "flex": 1,
                    "paddingHorizontal": 5,
                    "paddingVertical": 5,
                  },
                ]
              }
            >
              <View
                style={
                  Object {
                    "backfaceVisibility": "hidden",
                    "backgroundColor": "#2da4ef",
                    "borderColor": "#FFFFFF",
                    "borderRadius": 10,
                    "borderWidth": 4,
                    "elevation": 5,
                    "height": 290,
                    "shadowColor": undefined,
                    "shadowOffset": Object {
                      "height": 1,
                      "width": 0,
                    },
                    "shadowOpacity": 0.3,
                    "shadowRadius": 2,
                    "transform": Array [
                      Object {
                        "rotateY": "0deg",
                      },
                    ],
                    "width": 240,
                  }
                }
              >
                <View
                  style={
                    Object {
                      "alignItems": "center",
                      "flex": 1,
                      "justifyContent": "center",
                    }
                  }
                >
                  <Text
                    style={
                      Object {
                        "alignSelf": "center",
                        "color": "#FFFFFF",
                        "fontSize": 40,
                        "marginTop": 5,
                        "opacity": 0.8,
                      }
                    }
                  >
                    ?
                  </Text>
                </View>
              </View>
              <View
                style={
                  Object {
                    "backfaceVisibility": "hidden",
                    "borderColor": undefined,
                    "borderRadius": 10,
                    "borderWidth": 0.5,
                    "height": 290,
                    "position": "absolute",
                    "top": 0,
                    "transform": Array [
                      Object {
                        "rotateY": "180deg",
                      },
                    ],
                    "width": 240,
                  }
                }
              >
                <View
                  style={
                    Object {
                      "alignItems": "center",
                      "flex": 1,
                      "justifyContent": "center",
                    }
                  }
                >
                  <Text
                    style={
                      Object {
                        "alignSelf": "center",
                        "color": "#FFFFFF",
                        "fontSize": 40,
                        "marginTop": 5,
                        "opacity": 0.8,
                      }
                    }
                  >
                    91
                  </Text>
                </View>
              </View>
            </View>
          </View>
        </View>
      </View>
      <View
        onLayout={[Function]}
        style={null}
      >
        <View
          style={
            Object {
              "flexDirection": "row",
            }
          }
        >
          <View
            accessible={true}
            focusable={true}
            onClick={[Function]}
            onResponderGrant={[Function]}
            onResponderMove={[Function]}
            onResponderRelease={[Function]}
            onResponderTerminate={[Function]}
            onResponderTerminationRequest={[Function]}
            onStartShouldSetResponder={[Function]}
          >
            <View
              style={
                Array [
                  Object {
                    "alignItems": "center",
                    "flex": 1,
                    "paddingHorizontal": 5,
                    "paddingVertical": 5,
                  },
                ]
              }
            >
              <View
                style={
                  Object {
                    "backfaceVisibility": "hidden",
                    "backgroundColor": "#2da4ef",
                    "borderColor": "#FFFFFF",
                    "borderRadius": 10,
                    "borderWidth": 4,
                    "elevation": 5,
                    "height": 290,
                    "shadowColor": undefined,
                    "shadowOffset": Object {
                      "height": 1,
                      "width": 0,
                    },
                    "shadowOpacity": 0.3,
                    "shadowRadius": 2,
                    "transform": Array [
                      Object {
                        "rotateY": "0deg",
                      },
                    ],
                    "width": 240,
                  }
                }
              >
                <View
                  style={
                    Object {
                      "alignItems": "center",
                      "flex": 1,
                      "justifyContent": "center",
                    }
                  }
                >
                  <Text
                    style={
                      Object {
                        "alignSelf": "center",
                        "color": "#FFFFFF",
                        "fontSize": 40,
                        "marginTop": 5,
                        "opacity": 0.8,
                      }
                    }
                  >
                    ?
                  </Text>
                </View>
              </View>
              <View
                style={
                  Object {
                    "backfaceVisibility": "hidden",
                    "borderColor": undefined,
                    "borderRadius": 10,
                    "borderWidth": 0.5,
                    "height": 290,
                    "position": "absolute",
                    "top": 0,
                    "transform": Array [
                      Object {
                        "rotateY": "180deg",
                      },
                    ],
                    "width": 240,
                  }
                }
              >
                <View
                  style={
                    Object {
                      "alignItems": "center",
                      "flex": 1,
                      "justifyContent": "center",
                    }
                  }
                >
                  <Text
                    style={
                      Object {
                        "alignSelf": "center",
                        "color": "#FFFFFF",
                        "fontSize": 40,
                        "marginTop": 5,
                        "opacity": 0.8,
                      }
                    }
                  >
                    2
                  </Text>
                </View>
              </View>
            </View>
          </View>
          <View
            accessible={true}
            focusable={true}
            onClick={[Function]}
            onResponderGrant={[Function]}
            onResponderMove={[Function]}
            onResponderRelease={[Function]}
            onResponderTerminate={[Function]}
            onResponderTerminationRequest={[Function]}
            onStartShouldSetResponder={[Function]}
          >
            <View
              style={
                Array [
                  Object {
                    "alignItems": "center",
                    "flex": 1,
                    "paddingHorizontal": 5,
                    "paddingVertical": 5,
                  },
                ]
              }
            >
              <View
                style={
                  Object {
                    "backfaceVisibility": "hidden",
                    "backgroundColor": "#2da4ef",
                    "borderColor": "#FFFFFF",
                    "borderRadius": 10,
                    "borderWidth": 4,
                    "elevation": 5,
                    "height": 290,
                    "shadowColor": undefined,
                    "shadowOffset": Object {
                      "height": 1,
                      "width": 0,
                    },
                    "shadowOpacity": 0.3,
                    "shadowRadius": 2,
                    "transform": Array [
                      Object {
                        "rotateY": "0deg",
                      },
                    ],
                    "width": 240,
                  }
                }
              >
                <View
                  style={
                    Object {
                      "alignItems": "center",
                      "flex": 1,
                      "justifyContent": "center",
                    }
                  }
                >
                  <Text
                    style={
                      Object {
                        "alignSelf": "center",
                        "color": "#FFFFFF",
                        "fontSize": 40,
                        "marginTop": 5,
                        "opacity": 0.8,
                      }
                    }
                  >
                    ?
                  </Text>
                </View>
              </View>
              <View
                style={
                  Object {
                    "backfaceVisibility": "hidden",
                    "borderColor": undefined,
                    "borderRadius": 10,
                    "borderWidth": 0.5,
                    "height": 290,
                    "position": "absolute",
                    "top": 0,
                    "transform": Array [
                      Object {
                        "rotateY": "180deg",
                      },
                    ],
                    "width": 240,
                  }
                }
              >
                <View
                  style={
                    Object {
                      "alignItems": "center",
                      "flex": 1,
                      "justifyContent": "center",
                    }
                  }
                >
                  <Text
                    style={
                      Object {
                        "alignSelf": "center",
                        "color": "#FFFFFF",
                        "fontSize": 40,
                        "marginTop": 5,
                        "opacity": 0.8,
                      }
                    }
                  >
                    73
                  </Text>
                </View>
              </View>
            </View>
          </View>
          <View
            accessible={true}
            focusable={true}
            onClick={[Function]}
            onResponderGrant={[Function]}
            onResponderMove={[Function]}
            onResponderRelease={[Function]}
            onResponderTerminate={[Function]}
            onResponderTerminationRequest={[Function]}
            onStartShouldSetResponder={[Function]}
          >
            <View
              style={
                Array [
                  Object {
                    "alignItems": "center",
                    "flex": 1,
                    "paddingHorizontal": 5,
                    "paddingVertical": 5,
                  },
                ]
              }
            >
              <View
                style={
                  Object {
                    "backfaceVisibility": "hidden",
                    "backgroundColor": "#2da4ef",
                    "borderColor": "#FFFFFF",
                    "borderRadius": 10,
                    "borderWidth": 4,
                    "elevation": 5,
                    "height": 290,
                    "shadowColor": undefined,
                    "shadowOffset": Object {
                      "height": 1,
                      "width": 0,
                    },
                    "shadowOpacity": 0.3,
                    "shadowRadius": 2,
                    "transform": Array [
                      Object {
                        "rotateY": "0deg",
                      },
                    ],
                    "width": 240,
                  }
                }
              >
                <View
                  style={
                    Object {
                      "alignItems": "center",
                      "flex": 1,
                      "justifyContent": "center",
                    }
                  }
                >
                  <Text
                    style={
                      Object {
                        "alignSelf": "center",
                        "color": "#FFFFFF",
                        "fontSize": 40,
                        "marginTop": 5,
                        "opacity": 0.8,
                      }
                    }
                  >
                    ?
                  </Text>
                </View>
              </View>
              <View
                style={
                  Object {
                    "backfaceVisibility": "hidden",
                    "borderColor": undefined,
                    "borderRadius": 10,
                    "borderWidth": 0.5,
                    "height": 290,
                    "position": "absolute",
                    "top": 0,
                    "transform": Array [
                      Object {
                        "rotateY": "180deg",
                      },
                    ],
                    "width": 240,
                  }
                }
              >
                <View
                  style={
                    Object {
                      "alignItems": "center",
                      "flex": 1,
                      "justifyContent": "center",
                    }
                  }
                >
                  <Text
                    style={
                      Object {
                        "alignSelf": "center",
                        "color": "#FFFFFF",
                        "fontSize": 40,
                        "marginTop": 5,
                        "opacity": 0.8,
                      }
                    }
                  >
                    25
                  </Text>
                </View>
              </View>
            </View>
          </View>
        </View>
      </View>
      <View
        onLayout={[Function]}
        style={null}
      >
        <View
          style={
            Object {
              "flexDirection": "row",
            }
          }
        >
          <View
            accessible={true}
            focusable={true}
            onClick={[Function]}
            onResponderGrant={[Function]}
            onResponderMove={[Function]}
            onResponderRelease={[Function]}
            onResponderTerminate={[Function]}
            onResponderTerminationRequest={[Function]}
            onStartShouldSetResponder={[Function]}
          >
            <View
              style={
                Array [
                  Object {
                    "alignItems": "center",
                    "flex": 1,
                    "paddingHorizontal": 5,
                    "paddingVertical": 5,
                  },
                ]
              }
            >
              <View
                style={
                  Object {
                    "backfaceVisibility": "hidden",
                    "backgroundColor": "#2da4ef",
                    "borderColor": "#FFFFFF",
                    "borderRadius": 10,
                    "borderWidth": 4,
                    "elevation": 5,
                    "height": 290,
                    "shadowColor": undefined,
                    "shadowOffset": Object {
                      "height": 1,
                      "width": 0,
                    },
                    "shadowOpacity": 0.3,
                    "shadowRadius": 2,
                    "transform": Array [
                      Object {
                        "rotateY": "0deg",
                      },
                    ],
                    "width": 240,
                  }
                }
              >
                <View
                  style={
                    Object {
                      "alignItems": "center",
                      "flex": 1,
                      "justifyContent": "center",
                    }
                  }
                >
                  <Text
                    style={
                      Object {
                        "alignSelf": "center",
                        "color": "#FFFFFF",
                        "fontSize": 40,
                        "marginTop": 5,
                        "opacity": 0.8,
                      }
                    }
                  >
                    ?
                  </Text>
                </View>
              </View>
              <View
                style={
                  Object {
                    "backfaceVisibility": "hidden",
                    "borderColor": undefined,
                    "borderRadius": 10,
                    "borderWidth": 0.5,
                    "height": 290,
                    "position": "absolute",
                    "top": 0,
                    "transform": Array [
                      Object {
                        "rotateY": "180deg",
                      },
                    ],
                    "width": 240,
                  }
                }
              >
                <View
                  style={
                    Object {
                      "alignItems": "center",
                      "flex": 1,
                      "justifyContent": "center",
                    }
                  }
                >
                  <Text
                    style={
                      Object {
                        "alignSelf": "center",
                        "color": "#FFFFFF",
                        "fontSize": 40,
                        "marginTop": 5,
                        "opacity": 0.8,
                      }
                    }
                  >
                    66
                  </Text>
                </View>
              </View>
            </View>
          </View>
          <View
            accessible={true}
            focusable={true}
            onClick={[Function]}
            onResponderGrant={[Function]}
            onResponderMove={[Function]}
            onResponderRelease={[Function]}
            onResponderTerminate={[Function]}
            onResponderTerminationRequest={[Function]}
            onStartShouldSetResponder={[Function]}
          >
            <View
              style={
                Array [
                  Object {
                    "alignItems": "center",
                    "flex": 1,
                    "paddingHorizontal": 5,
                    "paddingVertical": 5,
                  },
                ]
              }
            >
              <View
                style={
                  Object {
                    "backfaceVisibility": "hidden",
                    "backgroundColor": "#2da4ef",
                    "borderColor": "#FFFFFF",
                    "borderRadius": 10,
                    "borderWidth": 4,
                    "elevation": 5,
                    "height": 290,
                    "shadowColor": undefined,
                    "shadowOffset": Object {
                      "height": 1,
                      "width": 0,
                    },
                    "shadowOpacity": 0.3,
                    "shadowRadius": 2,
                    "transform": Array [
                      Object {
                        "rotateY": "0deg",
                      },
                    ],
                    "width": 240,
                  }
                }
              >
                <View
                  style={
                    Object {
                      "alignItems": "center",
                      "flex": 1,
                      "justifyContent": "center",
                    }
                  }
                >
                  <Text
                    style={
                      Object {
                        "alignSelf": "center",
                        "color": "#FFFFFF",
                        "fontSize": 40,
                        "marginTop": 5,
                        "opacity": 0.8,
                      }
                    }
                  >
                    ?
                  </Text>
                </View>
              </View>
              <View
                style={
                  Object {
                    "backfaceVisibility": "hidden",
                    "borderColor": undefined,
                    "borderRadius": 10,
                    "borderWidth": 0.5,
                    "height": 290,
                    "position": "absolute",
                    "top": 0,
                    "transform": Array [
                      Object {
                        "rotateY": "180deg",
                      },
                    ],
                    "width": 240,
                  }
                }
              >
                <View
                  style={
                    Object {
                      "alignItems": "center",
                      "flex": 1,
                      "justifyContent": "center",
                    }
                  }
                >
                  <Text
                    style={
                      Object {
                        "alignSelf": "center",
                        "color": "#FFFFFF",
                        "fontSize": 40,
                        "marginTop": 5,
                        "opacity": 0.8,
                      }
                    }
                  >
                    25
                  </Text>
                </View>
              </View>
            </View>
          </View>
          <View
            accessible={true}
            focusable={true}
            onClick={[Function]}
            onResponderGrant={[Function]}
            onResponderMove={[Function]}
            onResponderRelease={[Function]}
            onResponderTerminate={[Function]}
            onResponderTerminationRequest={[Function]}
            onStartShouldSetResponder={[Function]}
          >
            <View
              style={
                Array [
                  Object {
                    "alignItems": "center",
                    "flex": 1,
                    "paddingHorizontal": 5,
                    "paddingVertical": 5,
                  },
                ]
              }
            >
              <View
                style={
                  Object {
                    "backfaceVisibility": "hidden",
                    "backgroundColor": "#2da4ef",
                    "borderColor": "#FFFFFF",
                    "borderRadius": 10,
                    "borderWidth": 4,
                    "elevation": 5,
                    "height": 290,
                    "shadowColor": undefined,
                    "shadowOffset": Object {
                      "height": 1,
                      "width": 0,
                    },
                    "shadowOpacity": 0.3,
                    "shadowRadius": 2,
                    "transform": Array [
                      Object {
                        "rotateY": "0deg",
                      },
                    ],
                    "width": 240,
                  }
                }
              >
                <View
                  style={
                    Object {
                      "alignItems": "center",
                      "flex": 1,
                      "justifyContent": "center",
                    }
                  }
                >
                  <Text
                    style={
                      Object {
                        "alignSelf": "center",
                        "color": "#FFFFFF",
                        "fontSize": 40,
                        "marginTop": 5,
                        "opacity": 0.8,
                      }
                    }
                  >
                    ?
                  </Text>
                </View>
              </View>
              <View
                style={
                  Object {
                    "backfaceVisibility": "hidden",
                    "borderColor": undefined,
                    "borderRadius": 10,
                    "borderWidth": 0.5,
                    "height": 290,
                    "position": "absolute",
                    "top": 0,
                    "transform": Array [
                      Object {
                        "rotateY": "180deg",
                      },
                    ],
                    "width": 240,
                  }
                }
              >
                <View
                  style={
                    Object {
                      "alignItems": "center",
                      "flex": 1,
                      "justifyContent": "center",
                    }
                  }
                >
                  <Text
                    style={
                      Object {
                        "alignSelf": "center",
                        "color": "#FFFFFF",
                        "fontSize": 40,
                        "marginTop": 5,
                        "opacity": 0.8,
                      }
                    }
                  >
                    47
                  </Text>
                </View>
              </View>
            </View>
          </View>
        </View>
      </View>
      <View
        onLayout={[Function]}
        style={null}
      >
        <View
          style={
            Object {
              "flexDirection": "row",
            }
          }
        >
          <View
            accessible={true}
            focusable={true}
            onClick={[Function]}
            onResponderGrant={[Function]}
            onResponderMove={[Function]}
            onResponderRelease={[Function]}
            onResponderTerminate={[Function]}
            onResponderTerminationRequest={[Function]}
            onStartShouldSetResponder={[Function]}
          >
            <View
              style={
                Array [
                  Object {
                    "alignItems": "center",
                    "flex": 1,
                    "paddingHorizontal": 5,
                    "paddingVertical": 5,
                  },
                ]
              }
            >
              <View
                style={
                  Object {
                    "backfaceVisibility": "hidden",
                    "backgroundColor": "#2da4ef",
                    "borderColor": "#FFFFFF",
                    "borderRadius": 10,
                    "borderWidth": 4,
                    "elevation": 5,
                    "height": 290,
                    "shadowColor": undefined,
                    "shadowOffset": Object {
                      "height": 1,
                      "width": 0,
                    },
                    "shadowOpacity": 0.3,
                    "shadowRadius": 2,
                    "transform": Array [
                      Object {
                        "rotateY": "0deg",
                      },
                    ],
                    "width": 240,
                  }
                }
              >
                <View
                  style={
                    Object {
                      "alignItems": "center",
                      "flex": 1,
                      "justifyContent": "center",
                    }
                  }
                >
                  <Text
                    style={
                      Object {
                        "alignSelf": "center",
                        "color": "#FFFFFF",
                        "fontSize": 40,
                        "marginTop": 5,
                        "opacity": 0.8,
                      }
                    }
                  >
                    ?
                  </Text>
                </View>
              </View>
              <View
                style={
                  Object {
                    "backfaceVisibility": "hidden",
                    "borderColor": undefined,
                    "borderRadius": 10,
                    "borderWidth": 0.5,
                    "height": 290,
                    "position": "absolute",
                    "top": 0,
                    "transform": Array [
                      Object {
                        "rotateY": "180deg",
                      },
                    ],
                    "width": 240,
                  }
                }
              >
                <View
                  style={
                    Object {
                      "alignItems": "center",
                      "flex": 1,
                      "justifyContent": "center",
                    }
                  }
                >
                  <Text
                    style={
                      Object {
                        "alignSelf": "center",
                        "color": "#FFFFFF",
                        "fontSize": 40,
                        "marginTop": 5,
                        "opacity": 0.8,
                      }
                    }
                  >
                    2
                  </Text>
                </View>
              </View>
            </View>
          </View>
          <View
            accessible={true}
            focusable={true}
            onClick={[Function]}
            onResponderGrant={[Function]}
            onResponderMove={[Function]}
            onResponderRelease={[Function]}
            onResponderTerminate={[Function]}
            onResponderTerminationRequest={[Function]}
            onStartShouldSetResponder={[Function]}
          >
            <View
              style={
                Array [
                  Object {
                    "alignItems": "center",
                    "flex": 1,
                    "paddingHorizontal": 5,
                    "paddingVertical": 5,
                  },
                ]
              }
            >
              <View
                style={
                  Object {
                    "backfaceVisibility": "hidden",
                    "backgroundColor": "#2da4ef",
                    "borderColor": "#FFFFFF",
                    "borderRadius": 10,
                    "borderWidth": 4,
                    "elevation": 5,
                    "height": 290,
                    "shadowColor": undefined,
                    "shadowOffset": Object {
                      "height": 1,
                      "width": 0,
                    },
                    "shadowOpacity": 0.3,
                    "shadowRadius": 2,
                    "transform": Array [
                      Object {
                        "rotateY": "0deg",
                      },
                    ],
                    "width": 240,
                  }
                }
              >
                <View
                  style={
                    Object {
                      "alignItems": "center",
                      "flex": 1,
                      "justifyContent": "center",
                    }
                  }
                >
                  <Text
                    style={
                      Object {
                        "alignSelf": "center",
                        "color": "#FFFFFF",
                        "fontSize": 40,
                        "marginTop": 5,
                        "opacity": 0.8,
                      }
                    }
                  >
                    ?
                  </Text>
                </View>
              </View>
              <View
                style={
                  Object {
                    "backfaceVisibility": "hidden",
                    "borderColor": undefined,
                    "borderRadius": 10,
                    "borderWidth": 0.5,
                    "height": 290,
                    "position": "absolute",
                    "top": 0,
                    "transform": Array [
                      Object {
                        "rotateY": "180deg",
                      },
                    ],
                    "width": 240,
                  }
                }
              >
                <View
                  style={
                    Object {
                      "alignItems": "center",
                      "flex": 1,
                      "justifyContent": "center",
                    }
                  }
                >
                  <Text
                    style={
                      Object {
                        "alignSelf": "center",
                        "color": "#FFFFFF",
                        "fontSize": 40,
                        "marginTop": 5,
                        "opacity": 0.8,
                      }
                    }
                  >
                    73
                  </Text>
                </View>
              </View>
            </View>
          </View>
          <View
            accessible={true}
            focusable={true}
            onClick={[Function]}
            onResponderGrant={[Function]}
            onResponderMove={[Function]}
            onResponderRelease={[Function]}
            onResponderTerminate={[Function]}
            onResponderTerminationRequest={[Function]}
            onStartShouldSetResponder={[Function]}
          >
            <View
              style={
                Array [
                  Object {
                    "alignItems": "center",
                    "flex": 1,
                    "paddingHorizontal": 5,
                    "paddingVertical": 5,
                  },
                ]
              }
            >
              <View
                style={
                  Object {
                    "backfaceVisibility": "hidden",
                    "backgroundColor": "#2da4ef",
                    "borderColor": "#FFFFFF",
                    "borderRadius": 10,
                    "borderWidth": 4,
                    "elevation": 5,
                    "height": 290,
                    "shadowColor": undefined,
                    "shadowOffset": Object {
                      "height": 1,
                      "width": 0,
                    },
                    "shadowOpacity": 0.3,
                    "shadowRadius": 2,
                    "transform": Array [
                      Object {
                        "rotateY": "0deg",
                      },
                    ],
                    "width": 240,
                  }
                }
              >
                <View
                  style={
                    Object {
                      "alignItems": "center",
                      "flex": 1,
                      "justifyContent": "center",
                    }
                  }
                >
                  <Text
                    style={
                      Object {
                        "alignSelf": "center",
                        "color": "#FFFFFF",
                        "fontSize": 40,
                        "marginTop": 5,
                        "opacity": 0.8,
                      }
                    }
                  >
                    ?
                  </Text>
                </View>
              </View>
              <View
                style={
                  Object {
                    "backfaceVisibility": "hidden",
                    "borderColor": undefined,
                    "borderRadius": 10,
                    "borderWidth": 0.5,
                    "height": 290,
                    "position": "absolute",
                    "top": 0,
                    "transform": Array [
                      Object {
                        "rotateY": "180deg",
                      },
                    ],
                    "width": 240,
                  }
                }
              >
                <View
                  style={
                    Object {
                      "alignItems": "center",
                      "flex": 1,
                      "justifyContent": "center",
                    }
                  }
                >
                  <Text
                    style={
                      Object {
                        "alignSelf": "center",
                        "color": "#FFFFFF",
                        "fontSize": 40,
                        "marginTop": 5,
                        "opacity": 0.8,
                      }
                    }
                  >
                    47
                  </Text>
                </View>
              </View>
            </View>
          </View>
        </View>
      </View>
    </View>
  </RCTScrollView>
</View>
`;
